,Logistic Régression,Arbre de décision,Random forest,SVC ,Gradient boosting,Extrem Gradient boosting
Accuracy,0.5714285714285714,0.6428571428571429,0.6363636363636364,0.6623376623376623,0.6168831168831169,0.6168831168831169
f1_score,0.5348404052369121,0.6229320155567402,0.6077397393561423,0.6198211424183544,0.5796527352882361,0.5899658931914283
